{
	"info": {
		"_postman_id": "00aaa687-2d6d-49a7-ad66-40da8c6d91cf",
		"name": "wallet",
		"schema": "https://schema.getpostman.com/json/collection/v2.1.0/collection.json"
	},
	"item": [
		{
			"name": "login",
			"request": {
				"method": "POST",
				"header": [
					{
						"key": "Content-Type",
						"name": "Content-Type",
						"value": "application/json",
						"type": "text"
					}
				],
				"body": {
					"mode": "raw",
					"raw": "{\n\t\"name\": \"first\",\n\t\"password\": \"mysecretpassword\"\n}",
					"options": {
						"raw": {
							"language": "json"
						}
					}
				},
				"url": {
					"raw": "{{url}}/login",
					"host": [
						"{{url}}"
					],
					"path": [
						"login"
					]
				}
			},
			"response": []
		},
		{
			"name": "verify-token",
			"request": {
				"auth": {
					"type": "bearer",
					"bearer": [
						{
							"key": "token",
							"value": "insert-computed-request-signature",
							"type": "string"
						}
					]
				},
				"method": "POST",
				"header": [
					{
						"key": "Content-Type",
						"name": "Content-Type",
						"value": "application/json",
						"type": "text"
					}
				],
				"body": {
					"mode": "raw",
					"raw": "{\n\t\"token\": \"278e48a0-5bf6-11ea-a973-2d28620a847d\"\n}",
					"options": {
						"raw": {
							"language": "json"
						}
					}
				},
				"url": {
					"raw": "{{url}}/verify-token",
					"host": [
						"{{url}}"
					],
					"path": [
						"verify-token"
					]
				}
			},
			"response": []
		},
		{
			"name": "withdraw",
			"request": {
				"auth": {
					"type": "bearer",
					"bearer": [
						{
							"key": "token",
							"value": "insert-computed-request-signature",
							"type": "string"
						}
					]
				},
				"method": "POST",
				"header": [
					{
						"key": "Content-Type",
						"name": "Content-Type",
						"value": "application/json",
						"type": "text"
					}
				],
				"body": {
					"mode": "raw",
					"raw": "{\n\t\"amount\": \"\",\n\t\"userId\": \"\"\n}",
					"options": {
						"raw": {
							"language": "json"
						}
					}
				},
				"url": {
					"raw": "{{url}}/withdraw",
					"host": [
						"{{url}}"
					],
					"path": [
						"withdraw"
					]
				}
			},
			"response": []
		},
		{
			"name": "deposit",
			"request": {
				"auth": {
					"type": "bearer",
					"bearer": [
						{
							"key": "token",
							"value": "insert-computed-request-signature",
							"type": "string"
						}
					]
				},
				"method": "POST",
				"header": [
					{
						"key": "Content-Type",
						"name": "Content-Type",
						"value": "application/json",
						"type": "text"
					}
				],
				"body": {
					"mode": "raw",
					"raw": "{\n\t\"amount\": \"\",\n\t\"userId\": \"\"\n}",
					"options": {
						"raw": {
							"language": "json"
						}
					}
				},
				"url": {
					"raw": "{{url}}/deposit",
					"host": [
						"{{url}}"
					],
					"path": [
						"deposit"
					]
				}
			},
			"response": []
		}
	],
	"event": [
		{
			"listen": "prerequest",
			"script": {
				"id": "a327eae9-6706-429b-a54b-45b5a214cfe4",
				"type": "text/javascript",
				"exec": [
					""
				]
			}
		},
		{
			"listen": "test",
			"script": {
				"id": "3e2f7bd0-ed78-4fbe-ad56-1b33f65224a4",
				"type": "text/javascript",
				"exec": [
					""
				]
			}
		}
	],
	"variable": [
		{
			"id": "84e7773c-4f22-4cd9-bfc5-89b6326fb2f3",
			"key": "url",
			"value": "http://localhost:8081/api/v1",
			"type": "string"
		}
	],
	"protocolProfileBehavior": {}
}